\relax 
\providecommand\hyper@newdestlabel[2]{}
\@writefile{toc}{\contentsline {section}{\numberline {B}The PSF profiles}{23}{appendix.B}\protected@file@percent }
\newlabel{app:profiles}{{B}{23}{The PSF profiles}{appendix.B}{}}
\@writefile{toc}{\contentsline {subsection}{\numberline {B.1}Handling of positions}{23}{subsection.B.1}\protected@file@percent }
\newlabel{sec:positions}{{B.1}{23}{Handling of positions}{subsection.B.1}{}}
\newlabel{eq:psf_x}{{7}{23}{Handling of positions}{equation.B.7}{}}
\newlabel{eq:psf_y}{{8}{23}{Handling of positions}{equation.B.8}{}}
\newlabel{eq:psf_radius}{{9}{23}{Handling of positions}{equation.B.9}{}}
\newlabel{eq:coordtransX}{{14}{23}{Handling of positions}{equation.B.14}{}}
\newlabel{eq:coordtransY}{{15}{23}{Handling of positions}{equation.B.15}{}}
\@writefile{toc}{\contentsline {subsection}{\numberline {B.2}The Gaussian profile}{24}{subsection.B.2}\protected@file@percent }
\newlabel{sec:gauss}{{B.2}{24}{The Gaussian profile}{subsection.B.2}{}}
\newlabel{eq:intensity}{{22}{24}{The Gaussian profile}{equation.B.22}{}}
\@writefile{toc}{\contentsline {subsection}{\numberline {B.3}The Moffat profile}{25}{subsection.B.3}\protected@file@percent }
\newlabel{sec:moffat}{{B.3}{25}{The Moffat profile}{subsection.B.3}{}}
\newlabel{eq:moffat}{{27}{25}{The Moffat profile}{equation.B.27}{}}
\newlabel{eq:moffat_fwhm}{{28}{25}{The Moffat profile}{equation.B.28}{}}
\@writefile{lof}{\contentsline {figure}{\numberline {6}{\ignorespaces Inverse ratio between the $\text  {FWHM}$ of a Moffat profile and the $\text  {FWHM}$ of its best Gaussian fit, as a function of the $\beta $ value of the Moffat profile and its S/N.}}{25}{figure.6}\protected@file@percent }
\newlabel{fig:fwhm_ratio_gauss_moffat}{{6}{25}{Inverse ratio between the $\fwhm $ of a Moffat profile and the $\fwhm $ of its best Gaussian fit, as a function of the $\beta $ value of the Moffat profile and its S/N}{figure.6}{}}
